{
  "tracks": {
    "href": "https://api.spotify.com/v1/search?query=Evanescence&type=track&market=US&offset=0&limit=1",
    "items": [
      {
        "album": {
          "album_type": "album",
          "artists": [
            {
              "external_urls": {
                "spotify": "https://open.spotify.com/artist/5nGIFgo0shDenQYSE0Sn7c"
              },
              "href": "https://api.spotify.com/v1/artists/5nGIFgo0shDenQYSE0Sn7c",
              "id": "5nGIFgo0shDenQYSE0Sn7c",
              "name": "Evanescence",
              "type": "artist",
              "uri": "spotify:artist:5nGIFgo0shDenQYSE0Sn7c"
            }
          ],
          "external_urls": {
            "spotify": "https://open.spotify.com/album/02w1xMzzdF2OJxTeh1basm"
          },
          "href": "https://api.spotify.com/v1/albums/02w1xMzzdF2OJxTeh1basm",
          "id": "02w1xMzzdF2OJxTeh1basm",
          "images": [
            {
              "height": 640,
              "url": "https://i.scdn.co/image/ab67616d0000b27325f49ab23f0ec6332efef432",
              "width": 640
            },
            {
              "height": 300,
              "url": "https://i.scdn.co/image/ab67616d00001e0225f49ab23f0ec6332efef432",
              "width": 300
            },
            {
              "height": 64,
              "url": "https://i.scdn.co/image/ab67616d0000485125f49ab23f0ec6332efef432",
              "width": 64
            }
          ],
          "name": "Fallen",
          "release_date": "2003-03-04",
          "release_date_precision": "day",
          "total_tracks": 12,
          "type": "album",
          "uri": "spotify:album:02w1xMzzdF2OJxTeh1basm"
        },
        "artists": [
          {
            "external_urls": {
              "spotify": "https://open.spotify.com/artist/5nGIFgo0shDenQYSE0Sn7c"
            },
            "href": "https://api.spotify.com/v1/artists/5nGIFgo0shDenQYSE0Sn7c",
            "id": "5nGIFgo0shDenQYSE0Sn7c",
            "name": "Evanescence",
            "type": "artist",
            "uri": "spotify:artist:5nGIFgo0shDenQYSE0Sn7c"
          }
        ],
        "disc_number": 1,
        "duration_ms": 235893,
        "explicit": false,
        "external_ids": {
          "isrc": "USWU30200093"
        },
        "external_urls": {
          "spotify": "https://open.spotify.com/track/0COqiPhxzoWICwFCS4eZcp"
        },
        "href": "https://api.spotify.com/v1/tracks/0COqiPhxzoWICwFCS4eZcp",
        "id": "0COqiPhxzoWICwFCS4eZcp",
        "is_local": false,
        "is_playable": true,
        "name": "Bring Me To Life",
        "popularity": 79,
        "preview_url": null,
        "track_number": 2,
        "type": "track",
        "uri": "spotify:track:0COqiPhxzoWICwFCS4eZcp"
      }
    ],
    "limit": 1,
    "next": "https://api.spotify.com/v1/search?query=Evanescence&type=track&market=US&offset=1&limit=1",
    "offset": 0,
    "previous": null,
    "total": 4018
  }
}